%YAML 1.1
%TAG !u! tag:unity3d.com,2011:
--- !u!21 &2100000
Material:
  serializedVersion: 6
  m_ObjectHideFlags: 0
  m_CorrespondingSourceObject: {fileID: 0}
  m_PrefabInstance: {fileID: 0}
  m_PrefabAsset: {fileID: 0}
  m_Name: Textured (Two Sided)
  m_Shader: {fileID: 4800000, guid: 5266d23f61b184441b58bf9610f85fdb, type: 3}
  m_ShaderKeywords: 
  m_LightmapFlags: 4
  m_EnableInstancingVariants: 0
  m_DoubleSidedGI: 0
  m_CustomRenderQueue: 5000
  stringTagMap: {}
  disabledShaderPasses: []
  m_SavedProperties:
    serializedVersion: 3
    m_TexEnvs:
    - Texture2D_128676DC:
        m_Texture: {fileID: 0}
        m_Scale: {x: 1, y: 1}
        m_Offset: {x: 0, y: 0}
    - Texture2D_48A582C:
        m_Texture: {fileID: 2800000, guid: 32588104ea598490bae2f834e22a0e08, type: 3}
        m_Scale: {x: 1, y: 1}
        m_Offset: {x: 0, y: 0}
    - _SampleTexture2D_584EA7DE_Texture:
        m_Texture: {fileID: 2800000, guid: 32588104ea598490bae2f834e22a0e08, type: 3}
        m_Scale: {x: 1, y: 1}
        m_Offset: {x: 0, y: 0}
    - _SampleTexture2D_C3BBDB8A_Texture:
        m_Texture: {fileID: 2800000, guid: bef5b2ce96a87441083766e32de9e122, type: 3}
        m_Scale: {x: 1, y: 1}
        m_Offset: {x: 0, y: 0}
    m_Floats:
    - Vector1_280428DA: 2
    - Vector1_2C78857E: 0.5
    - Vector1_3593BF25: 0.8
    - Vector1_717AD34A: 2.87
    - Vector1_AE41B0F4: 1
    m_Colors:
    - Color_567C39DD: {r: 0, g: 0.8666667, b: 0.22010106, a: 0}
    - Color_5D07721D: {r: 0.5188679, g: 0.5188679, b: 0.5188679, a: 0}
    - Color_7D4F1911: {r: 0.02352941, g: 0.4325434, b: 1, a: 0}
    - Color_A0AC59EB: {r: 0, g: 0.8980392, b: 0, a: 0}
    - Color_DAAFFAB3: {r: 0.2720658, g: 0.7735849, b: 0, a: 0}
