%YAML 1.1
%TAG !u! tag:unity3d.com,2011:
--- !u!21 &2100000
Material:
  serializedVersion: 6
  m_ObjectHideFlags: 0
  m_CorrespondingSourceObject: {fileID: 0}
  m_PrefabInstance: {fileID: 0}
  m_PrefabAsset: {fileID: 0}
  m_Name: Unlit
  m_Shader: {fileID: 4800000, guid: b46cf99f724184db8a891331d87184b6, type: 3}
  m_ShaderKeywords: 
  m_LightmapFlags: 4
  m_EnableInstancingVariants: 1
  m_DoubleSidedGI: 0
  m_CustomRenderQueue: -1
  stringTagMap: {}
  disabledShaderPasses: []
  m_SavedProperties:
    serializedVersion: 3
    m_TexEnvs:
    - Texture2D_48A582C:
        m_Texture: {fileID: 2800000, guid: 32588104ea598490bae2f834e22a0e08, type: 3}
        m_Scale: {x: 1, y: 1}
        m_Offset: {x: 0, y: 0}
    - Texture2D_BAFEDBF2:
        m_Texture: {fileID: 2800000, guid: 32588104ea598490bae2f834e22a0e08, type: 3}
        m_Scale: {x: 1, y: 1}
        m_Offset: {x: 0, y: 0}
    - Texture2D_E2789FDE:
        m_Texture: {fileID: 2800000, guid: 92a972acbb5834842818ed9eb0b347a7, type: 3}
        m_Scale: {x: 1, y: 1}
        m_Offset: {x: 0, y: 0}
    - Texture_48A582C:
        m_Texture: {fileID: 2800000, guid: 32588104ea598490bae2f834e22a0e08, type: 3}
        m_Scale: {x: 1, y: 1}
        m_Offset: {x: 0, y: 0}
    - _MainTex:
        m_Texture: {fileID: 2800000, guid: 92a972acbb5834842818ed9eb0b347a7, type: 3}
        m_Scale: {x: 1, y: 1}
        m_Offset: {x: 0, y: 0}
    - _SampleTexture2D_584EA7DE_Texture:
        m_Texture: {fileID: 2800000, guid: 32588104ea598490bae2f834e22a0e08, type: 3}
        m_Scale: {x: 1, y: 1}
        m_Offset: {x: 0, y: 0}
    - _SampleTexture2D_C3BBDB8A_Texture:
        m_Texture: {fileID: 2800000, guid: bef5b2ce96a87441083766e32de9e122, type: 3}
        m_Scale: {x: 1, y: 1}
        m_Offset: {x: 0, y: 0}
    - _WireframeMaskTex:
        m_Texture: {fileID: 0}
        m_Scale: {x: 1, y: 1}
        m_Offset: {x: 0, y: 0}
    - _WireframeTex:
        m_Texture: {fileID: 0}
        m_Scale: {x: 1, y: 1}
        m_Offset: {x: 0, y: 0}
    m_Floats:
    - Vector1_2C78857E: 0.5
    - Vector1_6DB09162: 1
    - Vector1_717AD34A: 1
    - Vector1_AE41B0F4: 1
    - _WireframeAA: 0
    - _WireframeAlphaCutoff: 0.5
    - _WireframeAlphaMode: 0
    - _WireframeCull: 2
    - _WireframeDoubleSided: 0
    - _WireframeLighting: 0
    - _WireframeSize: 1
    - _WireframeTexAniSpeedX: 0
    - _WireframeTexAniSpeedY: 0
    - _WireframeUV: 0
    - _WireframeVertexColor: 0
    m_Colors:
    - Color_567C39DD: {r: 0, g: 0.8666667, b: 0.22010106, a: 0}
    - Color_5D07721D: {r: 0.1509434, g: 0.1509434, b: 0.1509434, a: 0}
    - Color_5D56BC59: {r: 0, g: 0.8980392, b: 0, a: 0}
    - Color_DAAFFAB3: {r: 0.2720658, g: 0.7735849, b: 0, a: 0}
    - _Color: {r: 1, g: 1, b: 1, a: 1}
    - _WireframeColor: {r: 0, g: 1, b: 0.0698359, a: 1}
