%YAML 1.1
%TAG !u! tag:unity3d.com,2011:
--- !u!21 &2100000
Material:
  serializedVersion: 6
  m_ObjectHideFlags: 0
  m_CorrespondingSourceObject: {fileID: 0}
  m_PrefabInstance: {fileID: 0}
  m_PrefabAsset: {fileID: 0}
  m_Name: Robot-Standard
  m_Shader: {fileID: 4800000, guid: 9e6f84b00bc1a42b893e83a414235d70, type: 3}
  m_ShaderKeywords: _NORMALMAP _SHADE_ON _WIREFRAME_AA _WIREFRAME_ALPHA_MASK _WIREFRAME_VISIBILITY_NORMAL
  m_LightmapFlags: 5
  m_EnableInstancingVariants: 0
  m_DoubleSidedGI: 0
  m_CustomRenderQueue: 2000
  stringTagMap: {}
  disabledShaderPasses: []
  m_SavedProperties:
    serializedVersion: 3
    m_TexEnvs:
    - _BumpMap:
        m_Texture: {fileID: 2800000, guid: 4f9144d6b4ce3435688d58033647b890, type: 3}
        m_Scale: {x: 1, y: 1}
        m_Offset: {x: 0, y: 0}
    - _DetailAlbedoMap:
        m_Texture: {fileID: 0}
        m_Scale: {x: 1, y: 1}
        m_Offset: {x: 0, y: 0}
    - _DetailMask:
        m_Texture: {fileID: 0}
        m_Scale: {x: 1, y: 1}
        m_Offset: {x: 0, y: 0}
    - _DetailNormalMap:
        m_Texture: {fileID: 0}
        m_Scale: {x: 1, y: 1}
        m_Offset: {x: 0, y: 0}
    - _EmissionMap:
        m_Texture: {fileID: 0}
        m_Scale: {x: 1, y: 1}
        m_Offset: {x: 0, y: 0}
    - _Illum:
        m_Texture: {fileID: 0}
        m_Scale: {x: 1, y: 1}
        m_Offset: {x: 0, y: 0}
    - _MainTex:
        m_Texture: {fileID: 2800000, guid: c40b4585df521463ca8c3ba75dad762d, type: 3}
        m_Scale: {x: 1, y: 1}
        m_Offset: {x: 0, y: 0}
    - _MetallicGlossMap:
        m_Texture: {fileID: 0}
        m_Scale: {x: 1, y: 1}
        m_Offset: {x: 0, y: 0}
    - _OcclusionMap:
        m_Texture: {fileID: 0}
        m_Scale: {x: 1, y: 1}
        m_Offset: {x: 0, y: 0}
    - _ParallaxMap:
        m_Texture: {fileID: 0}
        m_Scale: {x: 1, y: 1}
        m_Offset: {x: 0, y: 0}
    - _ShadeTex:
        m_Texture: {fileID: 0}
        m_Scale: {x: 1, y: 1}
        m_Offset: {x: 0, y: 0}
    - _WireframeMaskTex:
        m_Texture: {fileID: 0}
        m_Scale: {x: 1, y: 1}
        m_Offset: {x: 0, y: 0}
    - _WireframeTex:
        m_Texture: {fileID: 0}
        m_Scale: {x: 1, y: 1}
        m_Offset: {x: 0, y: 0}
    - _WireframeVertexTex:
        m_Texture: {fileID: 0}
        m_Scale: {x: 1, y: 1}
        m_Offset: {x: 0, y: 0}
    m_Floats:
    - _Ambient: 0
    - _AmbientPower: 1
    - _BumpScale: 2
    - _Cutoff: 0.5
    - _DetailNormalMapScale: 1
    - _Diffuse: 0
    - _DiffusePower: 1
    - _DoubleSide: 0
    - _DstBlend: 0
    - _EmissionLM: 0
    - _Glossiness: 0.82
    - _Metallic: 0
    - _Mode: 0
    - _OcclusionStrength: 1
    - _OutlineWidth: 0.5
    - _Parallax: 0.02
    - _Shade: 1
    - _ShadePower: 1
    - _Shadow: 0
    - _ShadowPower: 0.2
    - _Shininess: 0.21
    - _SrcBlend: 1
    - _UVSec: 0
    - _WireframeAA: 1
    - _WireframeAlpha: 1
    - _WireframeAlphaMode: 3
    - _WireframeCull: 2
    - _WireframeDoubleSided: 0
    - _WireframeLighting: 0
    - _WireframeMaskUV: 0
    - _WireframeSize: 1
    - _WireframeTexAniSpeedX: 0
    - _WireframeTexAniSpeedY: 0
    - _WireframeUV: 0
    - _WireframeWidth: 1
    - _Wireframe_Alpha: 0
    - _Wireframe_VISIBILITY: 0
    - _ZWrite: 1
    m_Colors:
    - _Color: {r: 1, g: 1, b: 1, a: 1}
    - _EmissionColor: {r: 0, g: 0, b: 0, a: 1}
    - _OutlineColor: {r: 0, g: 0, b: 0, a: 0}
    - _WireframeColor: {r: 0, g: 0, b: 0, a: 1}
    - _WireframeEmissionColor: {r: 0, g: 0, b: 0, a: 1}
